<?xml version="1.0" encoding="UTF-8" standalone="no"?>
<!-- Created with Inkscape (http://www.inkscape.org/) -->

<svg
   xmlns:dc="http://purl.org/dc/elements/1.1/"
   xmlns:cc="http://creativecommons.org/ns#"
   xmlns:rdf="http://www.w3.org/1999/02/22-rdf-syntax-ns#"
   xmlns:svg="http://www.w3.org/2000/svg"
   xmlns="http://www.w3.org/2000/svg"
   xmlns:sodipodi="http://sodipodi.sourceforge.net/DTD/sodipodi-0.dtd"
   xmlns:inkscape="http://www.inkscape.org/namespaces/inkscape"
   id="svg4210"
   version="1.1"
   inkscape:version="0.91 r"
   width="100"
   height="100"
   viewBox="0 0 100 100"
   sodipodi:docname="real-estate.svg">
  <metadata
     id="metadata4216">
    <rdf:RDF>
      <cc:Work
         rdf:about="">
        <dc:format>image/svg+xml</dc:format>
        <dc:type
           rdf:resource="http://purl.org/dc/dcmitype/StillImage" />
        <dc:title></dc:title>
      </cc:Work>
    </rdf:RDF>
  </metadata>
  <defs
     id="defs4214" />
  <sodipodi:namedview
     pagecolor="#ffffff"
     bordercolor="#666666"
     borderopacity="1"
     objecttolerance="10"
     gridtolerance="10"
     guidetolerance="10"
     inkscape:pageopacity="0"
     inkscape:pageshadow="2"
     inkscape:window-width="1676"
     inkscape:window-height="1011"
     id="namedview4212"
     showgrid="false"
     fit-margin-top="0"
     fit-margin-left="0"
     fit-margin-right="0"
     fit-margin-bottom="0"
     inkscape:zoom="1"
     inkscape:cx="355.04515"
     inkscape:cy="260"
     inkscape:window-x="0"
     inkscape:window-y="18"
     inkscape:window-maximized="0"
     inkscape:current-layer="svg4210" />
  <path
     style="fill:#000000"
     d="M 9.0163677,90.407065 C 8.647775,90.137595 8.6351755,89.736215 8.5850325,76.666215 l -0.051652,-13.46327 15.1616884,-15.15846 15.161688,-15.15847 15.061143,15.06019 15.061141,15.06019 0,13.5154 c 0,12.8451 -0.01774,13.53147 -0.3577,13.83912 -0.322839,0.29217 -1.314121,0.32372 -10.171159,0.32372 l -9.813459,0 -0.006,-8.36187 c -0.0033,-4.59902 -0.08997,-9.02201 -0.192546,-9.82886 -0.270651,-2.12883 -1.387563,-4.30983 -2.945984,-5.75266 -1.992574,-1.84476 -4.057377,-2.6581 -6.748088,-2.6581 -4.475911,0 -8.22175,2.89941 -9.383127,7.26287 -0.223121,0.8383 -0.279962,2.89443 -0.281813,10.19436 l -0.0023,9.14426 -9.840375,0 c -8.188922,0 -9.9040948,-0.0466 -10.2200583,-0.27757 z m 62.1143693,-16.58759 1.05e-4,-11.00773 1.515789,-0.006 c 1.279793,-0.005 1.717492,-0.10071 2.811316,-0.61383 2.073578,-0.97274 3.552465,-2.56008 4.099622,-4.40028 0.29452,-0.99054 0.244499,-3.28785 -0.09198,-4.22402 -0.164756,-0.45839 -0.579844,-1.25057 -0.92242,-1.76039 -0.342574,-0.50982 -5.187134,-5.50579 -10.765688,-11.10216 l -10.142824,-10.1752 1.811175,-1.80365 1.811177,-1.80365 15.11197,15.11292 15.11197,15.11291 -0.0529,13.43606 c -0.04959,12.59529 -0.07475,13.45792 -0.402059,13.78527 -0.324343,0.3244 -1.043766,0.35307 -10.12226,0.40339 l -9.7731,0.0542 1.05e-4,-11.00774 z M 4.0688099,60.528905 c -3.26134369,-0.56932 -5.01154881,-4.07746 -3.54513012,-7.10592 0.46440893,-0.9591 37.41273122,-37.93702 38.11388122,-38.14441 0.417503,-0.12349 2.405359,1.80191 19.315921,18.7091 10.896361,10.89417 18.990183,19.13599 19.1815,19.53223 0.182038,0.37701 0.3671,1.21979 0.411249,1.87284 0.10189,1.5071 -0.462709,2.91467 -1.570605,3.91559 -1.03293,0.93319 -1.903437,1.27345 -3.274686,1.28001 -2.30235,0.011 -1.613741,0.6162 -18.397546,-16.16863 -8.441345,-8.44186 -15.436337,-15.34883 -15.544432,-15.34883 -0.108094,0 -7.105865,6.9152 -15.550605,15.36712 -8.444738,8.45192 -15.6046013,15.50014 -15.9108067,15.6627 -0.7775643,0.41282 -2.2205499,0.60419 -3.2287404,0.4282 z m 89.5628781,-6.06418 c -0.372598,-0.1069 -0.944726,-0.37546 -1.271395,-0.5968 -0.32667,-0.22135 -7.481016,-7.27686 -15.89855,-15.67893 l -15.304605,-15.27649 -2.790566,2.78559 -2.790562,2.78558 -3.516933,-3.52101 -3.516932,-3.52101 6.060782,-6.06314 c 5.251834,-5.25389 6.138936,-6.06315 6.646338,-6.06315 0.515795,0 2.792487,2.20647 19.10952,18.52014 12.753407,12.75077 18.680152,18.8071 19.025339,19.44133 2.104606,3.86684 -1.524117,8.40106 -5.752435,7.18789 z"
     id="path4760"
     inkscape:connector-curvature="0" />
</svg>
